module github.com/everitosan/averto

go 1.19

require (
	github.com/gin-gonic/gin v1.8.1
	gopkg.in/yaml.v3 v3.0.1
)

require (
	dario.cat/mergo v1.0.0 // indirect
	github.com/Jeffail/gabs v1.4.0 // indirect
	github.com/bep/godartsass v1.2.0 // indirect
	github.com/bep/godartsass/v2 v2.0.0 // indirect
	github.com/bep/golibsass v1.1.1 // indirect
	github.com/cli/safeexec v1.0.1 // indirect
	github.com/cosmtrek/air v1.50.0 // indirect
	github.com/creack/pty v1.1.21 // indirect
	github.com/fatih/color v1.16.0 // indirect
	github.com/fsnotify/fsnotify v1.7.0 // indirect
	github.com/gin-contrib/sse v0.1.0 // indirect
	github.com/go-playground/locales v0.14.0 // indirect
	github.com/go-playground/universal-translator v0.18.0 // indirect
	github.com/go-playground/validator/v10 v10.11.1 // indirect
	github.com/gobwas/glob v0.2.3 // indirect
	github.com/goccy/go-json v0.9.11 // indirect
	github.com/gohugoio/hugo v0.123.2 // indirect
	github.com/joho/godotenv v1.4.0 // indirect
	github.com/json-iterator/go v1.1.12 // indirect
	github.com/leodido/go-urn v1.2.1 // indirect
	github.com/mattn/go-colorable v0.1.13 // indirect
	github.com/mattn/go-isatty v0.0.20 // indirect
	github.com/mitchellh/hashstructure v1.1.0 // indirect
	github.com/modern-go/concurrent v0.0.0-20180306012644-bacd9c7ef1dd // indirect
	github.com/modern-go/reflect2 v1.0.2 // indirect
	github.com/pelletier/go-toml v1.9.5 // indirect
	github.com/pelletier/go-toml/v2 v2.1.1 // indirect
	github.com/sirupsen/logrus v1.9.0 // indirect
	github.com/spf13/afero v1.11.0 // indirect
	github.com/spf13/cast v1.6.0 // indirect
	github.com/tdewolff/parse/v2 v2.7.12 // indirect
	github.com/ugorji/go/codec v1.2.7 // indirect
	golang.org/x/crypto v0.19.0 // indirect
	golang.org/x/net v0.21.0 // indirect
	golang.org/x/sys v0.17.0 // indirect
	golang.org/x/text v0.14.0 // indirect
	google.golang.org/protobuf v1.32.0 // indirect
	gopkg.in/yaml.v2 v2.4.0 // indirect
)
